Week10 Assignment
…
nrc_joy <- get_sentiments("nrc") %>%
  filter(sentiment == "joy")

tidy_books %>%
  filter(book == "Emma") %>%
  inner_join(nrc_joy) %>%
  count(word, sort = TRUE)

## Joining, by = "word"

## # A tibble: 303 x 2
##    word        n
##    <chr>   <int>
##  1 good      359
##  2 young     192
##  3 friend    166
##  4 hope      143
##  5 happy     125
##  6 love      117
##  7 deal       92
##  8 found      92
##  9 present    89
## 10 kind       82
## # ... with 293 more rows

jane_austen_sentiment <- tidy_books %>%
  inner_join(get_sentiments("bing")) %>%
  mutate(index = linenumber %/% 80) %>% 
  count(book, index, sentiment) %>%
  pivot_wider(names_from = sentiment, values_from = n, values_fill = list(n = 0)) %>%
  mutate(sentiment = positive - negative)

## Joining, by = "word"

jane_austen_sentiment

## # A tibble: 920 x 5
##    book                index negative positive sentiment
##    <fct>               <dbl>    <int>    <int>     <int>
##  1 Sense & Sensibility     0       16       32        16
##  2 Sense & Sensibility     1       19       53        34
##  3 Sense & Sensibility     2       12       31        19
##  4 Sense & Sensibility     3       15       31        16
##  5 Sense & Sensibility     4       16       34        18
##  6 Sense & Sensibility     5       16       51        35
##  7 Sense & Sensibility     6       24       40        16
##  8 Sense & Sensibility     7       23       51        28
##  9 Sense & Sensibility     8       30       40        10
## 10 Sense & Sensibility     9       15       19         4
## # ... with 910 more rows
…
2.3 Comparing 3 different dictionaries

pride_prejudice <- tidy_books %>% 
  filter(book == "Pride & Prejudice")

pride_prejudice

## # A tibble: 122,204 x 4
##    book              linenumber chapter word     
##    <fct>                  <int>   <int> <chr>    
##  1 Pride & Prejudice          1       0 pride    
##  2 Pride & Prejudice          1       0 and      
##  3 Pride & Prejudice          1       0 prejudice
##  4 Pride & Prejudice          3       0 by       
##  5 Pride & Prejudice          3       0 jane     
##  6 Pride & Prejudice          3       0 austen   
##  7 Pride & Prejudice          7       1 chapter  
##  8 Pride & Prejudice          7       1 1        
##  9 Pride & Prejudice         10       1 it       
## 10 Pride & Prejudice         10       1 is       
## # ... with 122,194 more rows
…
2.4 Most common positive and negative words

bing_word_counts <- tidy_books %>%
  inner_join(get_sentiments("bing")) %>%
  count(word, sentiment, sort = TRUE) %>%
  ungroup()

## Joining, by = "word"

bing_word_counts

## # A tibble: 2,585 x 3
##    word     sentiment     n
##    <chr>    <chr>     <int>
##  1 miss     negative   1855
##  2 well     positive   1523
##  3 good     positive   1380
##  4 great    positive    981
##  5 like     positive    725
##  6 better   positive    639
##  7 enough   positive    613
##  8 happy    positive    534
##  9 love     positive    495
## 10 pleasure positive    462
## # ... with 2,575 more rows
…
2.6 Units other than words

PandP_sentences <- tibble(text = prideprejudice) %>% 
  unnest_tokens(sentence, text, token = "sentences")

PandP_sentences

## # A tibble: 15,545 x 1
##    sentence                                                                  
##    <chr>                                                                     
##  1 "pride and prejudice"                                                     
##  2 "by jane austen"                                                          
##  3 "chapter 1"                                                               
##  4 "it is a truth universally acknowledged, that a single man in possession" 
##  5 "of a good fortune, must be in want of a wife."                           
##  6 "however little known the feelings or views of such a man may be on his"  
##  7 "first entering a neighbourhood, this truth is so well fixed in the minds"
##  8 "of the surrounding families, that he is considered the rightful property"
##  9 "of some one or other of their daughters."                                
## 10 "\"my dear mr."                                                           
## # ... with 15,535 more rows

tibble(text = prideprejudice) %>% 
  mutate(text = iconv(text, to = "ASCII")) %>% 
  unnest_tokens(sentence, text, token = "sentences")

## # A tibble: 15,545 x 1
##    sentence                                                                  
##    <chr>                                                                     
##  1 "pride and prejudice"                                                     
##  2 "by jane austen"                                                          
##  3 "chapter 1"                                                               
##  4 "it is a truth universally acknowledged, that a single man in possession" 
##  5 "of a good fortune, must be in want of a wife."                           
##  6 "however little known the feelings or views of such a man may be on his"  
##  7 "first entering a neighbourhood, this truth is so well fixed in the minds"
##  8 "of the surrounding families, that he is considered the rightful property"
##  9 "of some one or other of their daughters."                                
## 10 "\"my dear mr."                                                           
## # ... with 15,535 more rows

austen_chapters <- austen_books() %>%
  group_by(book) %>%
  unnest_tokens(chapter, text, token = "regex", 
                pattern = "Chapter|CHAPTER [\\dIVXLC]") %>%
  ungroup()

austen_chapters

## # A tibble: 275 x 2
##    book             chapter                                                     
##    <fct>            <chr>                                                       
##  1 Sense & Sensibi~ "sense and sensibility\n\nby jane austen\n\n(1811)\n\n\n\n\~
##  2 Sense & Sensibi~ "\n\n\nthe family of dashwood had long been settled in suss~
##  3 Sense & Sensibi~ "\n\n\nmrs. john dashwood now installed herself mistress of~
##  4 Sense & Sensibi~ "\n\n\nmrs. dashwood remained at norland several months; no~
##  5 Sense & Sensibi~ "\n\n\n\"what a pity it is, elinor,\" said marianne, \"that~
##  6 Sense & Sensibi~ "\n\n\nno sooner was her answer dispatched, than mrs. dashw~
##  7 Sense & Sensibi~ "\n\n\nthe first part of their journey was performed in too~
##  8 Sense & Sensibi~ "\n\n\nbarton park was about half a mile from the cottage. ~
##  9 Sense & Sensibi~ "\n\n\nmrs. jennings was a widow with an ample jointure.  s~
## 10 Sense & Sensibi~ "\n\n\nthe dashwoods were now settled at barton with tolera~
## # ... with 265 more rows

tidy_books %>%
  distinct(book, chapter)

## # A tibble: 275 x 2
##    book                chapter
##    <fct>                 <int>
##  1 Sense & Sensibility       0
##  2 Sense & Sensibility       1
##  3 Sense & Sensibility       2
##  4 Sense & Sensibility       3
##  5 Sense & Sensibility       4
##  6 Sense & Sensibility       5
##  7 Sense & Sensibility       6
##  8 Sense & Sensibility       7
##  9 Sense & Sensibility       8
## 10 Sense & Sensibility       9
## # ... with 265 more rows

tidy_books %>% 
  group_by(book, chapter) %>% 
  summarize(str_c(word, collapse = " "))

## `summarise()` regrouping output by 'book' (override with `.groups` argument)

## # A tibble: 275 x 3
## # Groups:   book [6]
##    book           chapter `str_c(word, collapse = " ")`                         
##    <fct>            <int> <chr>                                                 
##  1 Sense & Sensi~       0 sense and sensibility by jane austen 1811             
##  2 Sense & Sensi~       1 chapter 1 the family of dashwood had long been settle~
##  3 Sense & Sensi~       2 chapter 2 mrs john dashwood now installed herself mis~
##  4 Sense & Sensi~       3 chapter 3 mrs dashwood remained at norland several mo~
##  5 Sense & Sensi~       4 chapter 4 what a pity it is elinor said marianne that~
##  6 Sense & Sensi~       5 chapter 5 no sooner was her answer dispatched than mr~
##  7 Sense & Sensi~       6 chapter 6 the first part of their journey was perform~
##  8 Sense & Sensi~       7 chapter 7 barton park was about half a mile from the ~
##  9 Sense & Sensi~       8 chapter 8 mrs jennings was a widow with an ample join~
## 10 Sense & Sensi~       9 chapter 9 the dashwoods were now settled at barton wi~
## # ... with 265 more rows
…
#aesopBookTidy<-tidy_book(aesopBookMutated)

# identify the tokens and remove stop words
aesopBookTidy<-aesopBookMutated %>% 
    unnest_tokens(word, text) %>% 
    anti_join(stop_words)

## Joining, by = "word"

sentiment lexicon loughran

#load the sentiment lexicon loughran
get_sentiments("loughran")

## # A tibble: 4,150 x 2
##    word         sentiment
##    <chr>        <chr>    
##  1 abandon      negative 
##  2 abandoned    negative 
##  3 abandoning   negative 
##  4 abandonment  negative 
##  5 abandonments negative 
##  6 abandons     negative 
##  7 abdicated    negative 
##  8 abdicates    negative 
##  9 abdicating   negative 
## 10 abdication   negative 
## # ... with 4,140 more rows
…
## Joining, by = "word"

Identify top 10 sentiments

aesopBook_lexi %>%
group_by(sentiment) %>%
top_n(10) %>%
ungroup() %>%mutate(word = reorder(word, n)) 

## Selecting by n

## # A tibble: 60 x 3
##    word         sentiment     n
##    <fct>        <chr>     <int>
##  1 constitution litigious   471
##  2 legislative  litigious   210
##  3 laws         litigious   203
##  4 legislature  litigious   193
##  5 law          litigious   148
##  6 danger       negative    134
##  7 courts       litigious   129
##  8 force        negative    119
##  9 court        litigious   105
## 10 jurisdiction litigious   103
## # ... with 50 more rows
…
